copy（{"success":true,"resultCode":null,"msg":null,"result":{"order":null,"pageNo":1,"orderBy":null,"pageSize":10,"totalCount":95,"autoCount":true,"totalPages":10,"hasNext":true,"nextPage":2,"hasPre":false,"prePage":1,"orderBySetted":false,"first":1,"result":[{"floorCode":null,"shopCode":"M00033701002001","mallCode":"M000337","shopPic":"http://images01.putiandi.com/data/img/mall/4/M000337/M00033701/M00033701002/M00033701002001/upload_26ded283_f40d_4200_bec3_1c9297225608_00000264.jpg","shopArea":200.0,"orderStatus":null,"intentionPrice":0,"endDate":1528387200000,"crtTime":1472435508000,"mallName":"金虹桥商场","cityName":null,"districtName":"长宁区","districtCode":null,"cityCode":null,"floorName":"LG1","floorFlash":null,"shopName":"LG1走廊","mallAddress":"娄山关路533号206A","latitude":null,"longitude":null,"buildingzoneName":"A","stopTime":null,"storeId":148,"beginDate":1465315200000,"dayPrice":3000,"storeRequirement":"本铺位可长期签\n","businesstypeList":"特卖,展览,活动,零售","isOut":0,"minDays":10,"promotePrice":"","storeDesc":"本铺位于LG1走廊，人流量较大\n\n","shopPlan":"","mallSupportItem":null,"shopSupportItem":null,"businesstypeInfoList":null,"payOrderList":null,"beginDayPrice":null,"endDayPrice":null,"beginShopArea":null,"endShopArea":null,"status":2},{"floorCode":null,"shopCode":"M00033701003001","mallCode":"M000337","shopPic":"http://images01.putiandi.com/data/img/mall/4/M000337/M00033701/M00033701003/M00033701003001/upload_ba24b51c_d40f_4ec8_97a0_79029276711a_00000187.jpg","shopArea":200.0,"orderStatus":null,"intentionPrice":0,"endDate":1528387200000,"crtTime":1472435506000,"mallName":"金虹桥商场","cityName":null,"districtName":"长宁区","districtCode":null,"cityCode":null,"floorName":"LG2","floorFlash":null,"shopName":"LG2走廊","mallAddress":"娄山关路533号206A","latitude":null,"longitude":null,"buildingzoneName":"A","stopTime":null,"storeId":149,"beginDate":1465315200000,"dayPrice":3000,"storeRequirement":"本铺位可长期签\n","businesstypeList":"特卖,展览,活动,零售","isOut":0,"minDays":10,"promotePrice":"","storeDesc":"本铺位于LG2走廊，人流量较大\n","shopPlan":"","mallSupportItem":null,"shopSupportItem":null,"businesstypeInfoList":null,"payOrderList":null,"beginDayPrice":null,"endDayPrice":null,"beginShopArea":null,"endShopArea":null,"status":2},{"floorCode":null,"shopCode":"M00035401001001","mallCode":"M000354","shopPic":"http://images01.putiandi.com/data/img/mall/4/M000354/M00035401/M00035401001/M00035401001001/upload_26ded283_f40d_4200_bec3_1c9297225608_00000495.jpg","shopArea":40.0,"orderStatus":null,"intentionPrice":0,"endDate":1528387200000,"crtTime":1468834228000,"mallName":"凯德龙之梦","cityName":null,"districtName":"闵行区","districtCode":null,"cityCode":null,"floorName":"1F","floorFlash":null,"shopName":"中庭","mallAddress":"沪闵路6088号","latitude":null,"longitude":null,"buildingzoneName":"A","stopTime":null,"storeId":108,"beginDate":1465315200000,"dayPrice":7000,"storeRequirement":"本铺十天一个档期。","businesstypeList":"特卖,餐饮,展览,活动,零售","isOut":0,"minDays":10,"promotePrice":"","storeDesc":"本铺位于中厅，人流量大，展示面广。\n","shopPlan":"","mallSupportItem":null,"shopSupportItem":null,"businesstypeInfoList":null,"payOrderList":null,"beginDayPrice":null,"endDayPrice":null,"beginShopArea":null,"endShopArea":null,"status":2},{"floorCode":null,"shopCode":"M00035201001001","mallCode":"M000352","shopPic":"http://images01.putiandi.com/data/img/mall/4/M000352/M00035201/M00035201001/M00035201001001/upload_26ded283_f40d_4200_bec3_1c9297225608_00000471.jpg","shopArea":400.0,"orderStatus":null,"intentionPrice":0,"endDate":1528387200000,"crtTime":1468813052000,"mallName":"财富108广场","cityName":null,"districtName":"闵行区","districtCode":null,"cityCode":null,"floorName":"1F","floorFlash":null,"shopName":"内街","mallAddress":"七莘路1839号","latitude":null,"longitude":null,"buildingzoneName":"A","stopTime":null,"storeId":105,"beginDate":1465315200000,"dayPrice":1500,"storeRequirement":"本铺十天一个档期\n","businesstypeList":"特卖,餐饮,展览,活动,零售","isOut":0,"minDays":10,"promotePrice":"","storeDesc":"本铺位于沿街，人流量大，展示面广。\n","shopPlan":"","mallSupportItem":null,"shopSupportItem":null,"businesstypeInfoList":null,"payOrderList":null,"beginDayPrice":null,"endDayPrice":null,"beginShopArea":null,"endShopArea":null,"status":2},{"floorCode":null,"shopCode":"M00035201002001","mallCode":"M000352","shopPic":"http://images01.putiandi.com/data/img/mall/4/M000352/M00035201/M00035201002/M00035201002001/upload_26ded283_f40d_4200_bec3_1c9297225608_00000474.jpg","shopArea":1000.0,"orderStatus":null,"intentionPrice":0,"endDate":1528387200000,"crtTime":1468813051000,"mallName":"财富108广场","cityName":null,"districtName":"闵行区","districtCode":null,"cityCode":null,"floorName":"2F","floorFlash":null,"shopName":"闪铺","mallAddress":"七莘路1839号","latitude":null,"longitude":null,"buildingzoneName":"A","stopTime":null,"storeId":106,"beginDate":1465315200000,"dayPrice":1200,"storeRequirement":"本铺十天一个档期\n","businesstypeList":"特卖,餐饮,展览,活动,零售","isOut":0,"minDays":10,"promotePrice":"","storeDesc":"本铺位于二楼商铺厅，展示面广，人流量大\n","shopPlan":"","mallSupportItem":null,"shopSupportItem":null,"businesstypeInfoList":null,"payOrderList":null,"beginDayPrice":null,"endDayPrice":null,"beginShopArea":null,"endShopArea":null,"status":2},{"floorCode":null,"shopCode":"M00035101001001","mallCode":"M000351","shopPic":"http://images01.putiandi.com/data/img/mall/4/M000351/M00035101/M00035101001/M00035101001001/upload_ba24b51c_d40f_4ec8_97a0_79029276711a_00000391.jpg","shopArea":150.0,"orderStatus":null,"intentionPrice":0,"endDate":1528387200000,"crtTime":1468810267000,"mallName":"麦多生活广场","cityName":null,"districtName":"闵行区","districtCode":null,"cityCode":null,"floorName":"1F","floorFlash":null,"shopName":"外广场","mallAddress":"莲花南路1500弄","latitude":null,"longitude":null,"buildingzoneName":"A","stopTime":null,"storeId":104,"beginDate":1465315200000,"dayPrice":1500,"storeRequirement":"本铺十天一个档期\n","businesstypeList":"特卖,餐饮,展览,活动,零售","isOut":1,"minDays":10,"promotePrice":"","storeDesc":"本铺位于沿街，人流量大\n\n","shopPlan":"","mallSupportItem":null,"shopSupportItem":null,"businesstypeInfoList":null,"payOrderList":null,"beginDayPrice":null,"endDayPrice":null,"beginShopArea":null,"endShopArea":null,"status":2},{"floorCode":null,"shopCode":"M00034801001001","mallCode":"M000348","shopPic":"http://images01.putiandi.com/data/img/mall/4/M000348/M00034801/M00034801001/M00034801001001/upload_ba24b51c_d40f_4ec8_97a0_79029276711a_00000356.jpg","shopArea":70.0,"orderStatus":null,"intentionPrice":0,"endDate":1527696000000,"crtTime":1468550056000,"mallName":"上海巴黎春天成山店","cityName":null,"districtName":"浦东新区","districtCode":null,"cityCode":null,"floorName":"B1","floorFlash":null,"shopName":"中庭","mallAddress":"成山路1993号","latitude":null,"longitude":null,"buildingzoneName":"A","stopTime":null,"storeId":100,"beginDate":1469980800000,"dayPrice":2000,"storeRequirement":"无。","businesstypeList":"特卖,餐饮,展览,活动,零售","isOut":0,"minDays":22,"promotePrice":"","storeDesc":"位置好，人流量大，位于名创优品门口。\n","shopPlan":"","mallSupportItem":null,"shopSupportItem":null,"businesstypeInfoList":null,"payOrderList":null,"beginDayPrice":null,"endDayPrice":null,"beginShopArea":null,"endShopArea":null,"status":2},{"floorCode":null,"shopCode":"M00035001001001","mallCode":"M000350","shopPic":"http://images01.putiandi.com/data/img/mall/4/M000350/M00035001/M00035001001/M00035001001001/upload_ba24b51c_d40f_4ec8_97a0_79029276711a_00000367.jpg","shopArea":150.0,"orderStatus":null,"intentionPrice":0,"endDate":1527696000000,"crtTime":1468549831000,"mallName":"鹿都国际","cityName":null,"districtName":"松江区","districtCode":null,"cityCode":null,"floorName":"B1","floorFlash":null,"shopName":"中庭","mallAddress":"松汇中路568号","latitude":null,"longitude":null,"buildingzoneName":"A","stopTime":null,"storeId":103,"beginDate":1464710400000,"dayPrice":1500,"storeRequirement":"不能和其他商铺的特卖活动有业态冲突\n","businesstypeList":"特卖,展览,活动,零售","isOut":0,"minDays":10,"promotePrice":"","storeDesc":"本铺位于B1中庭，人流量大。\n\n","shopPlan":"","mallSupportItem":null,"shopSupportItem":null,"businesstypeInfoList":null,"payOrderList":null,"beginDayPrice":null,"endDayPrice":null,"beginShopArea":null,"endShopArea":null,"status":2},{"floorCode":null,"shopCode":"M00034901001002","mallCode":"M000349","shopPic":"http://images01.putiandi.com/data/img/mall/4/M000349/M00034901/M00034901001/M00034901001002/upload_ba24b51c_d40f_4ec8_97a0_79029276711a_00000358.jpg","shopArea":40.0,"orderStatus":null,"intentionPrice":0,"endDate":1527696000000,"crtTime":1468548160000,"mallName":"松江万达广场","cityName":null,"districtName":"松江区","districtCode":null,"cityCode":null,"floorName":"1F","floorFlash":null,"shopName":"走廊","mallAddress":"广富林路658号","latitude":null,"longitude":null,"buildingzoneName":"A","stopTime":null,"storeId":102,"beginDate":1464710400000,"dayPrice":6000,"storeRequirement":"不能和其他商铺的特卖活动有业态冲突，服装箱包特卖需要总部联动","businesstypeList":"特卖,展览,活动,零售","isOut":0,"minDays":10,"promotePrice":"","storeDesc":"本铺位于商场一楼楼浪，人流量大，展示面广\n","shopPlan":"","mallSupportItem":null,"shopSupportItem":null,"businesstypeInfoList":null,"payOrderList":null,"beginDayPrice":null,"endDayPrice":null,"beginShopArea":null,"endShopArea":null,"status":2},{"floorCode":null,"shopCode":"M00034901001001","mallCode":"M000349","shopPic":"http://images01.putiandi.com/data/img/mall/4/M000349/M00034901/M00034901001/M00034901001001/upload_ba24b51c_d40f_4ec8_97a0_79029276711a_00000354.jpg","shopArea":24.0,"orderStatus":null,"intentionPrice":0,"endDate":1527696000000,"crtTime":1468548143000,"mallName":"松江万达广场","cityName":null,"districtName":"松江区","districtCode":null,"cityCode":null,"floorName":"1F","floorFlash":null,"shopName":"中厅","mallAddress":"广富林路658号","latitude":null,"longitude":null,"buildingzoneName":"A","stopTime":null,"storeId":101,"beginDate":1464710400000,"dayPrice":6000,"storeRequirement":"不能和其他商铺的特卖活动有业态冲突，服装箱包特卖需要总部联动。\n","businesstypeList":"特卖,展览,活动,零售","isOut":0,"minDays":10,"promotePrice":"","storeDesc":"本铺位于商场一楼内部偏厅，人流量大，展示面广\n","shopPlan":"","mallSupportItem":null,"shopSupportItem":null,"businesstypeInfoList":null,"payOrderList":null,"beginDayPrice":null,"endDayPrice":null,"beginShopArea":null,"endShopArea":null,"status":2}]}}